<svg width="42" height="42" viewBox="0 0 42 42" xmlns="http://www.w3.org/2000/svg">
    <path id="goGoCam" fill-rule="evenodd" clip-rule="evenodd" d="M17.8522 5.75C16.0573 5.75 14.6022 7.20507 14.6022 9H7.41943C5.21029 9 3.41943 10.7909 3.41943 13V33.1667C3.41943 35.3758 5.2103 37.1667 7.41944 37.1667H35.2044C37.4135 37.1667 39.2044 35.3758 39.2044 33.1667V13C39.2044 10.7909 37.4135 9 35.2044 9H28.0216C28.0216 7.20507 26.5665 5.75 24.7716 5.75H17.8522ZM30.2581 23.0833C30.2581 27.8698 26.2528 31.75 21.3119 31.75C16.371 31.75 12.3657 27.8698 12.3657 23.0833C12.3657 18.2969 16.371 14.4167 21.3119 14.4167C26.2528 14.4167 30.2581 18.2969 30.2581 23.0833ZM6.77427 14.25C6.77427 13.1454 7.6697 12.25 8.77427 12.25H10.3657C11.4702 12.25 12.3657 13.1454 12.3657 14.25V15.6667C12.3657 16.7712 11.4702 17.6667 10.3657 17.6667H8.77427C7.6697 17.6667 6.77427 16.7712 6.77427 15.6667V14.25ZM21.3119 28.5C24.4 28.5 26.9033 26.0749 26.9033 23.0833C26.9033 20.0918 24.4 17.6667 21.3119 17.6667C18.2239 17.6667 15.7205 20.0918 15.7205 23.0833C15.7205 26.0749 18.2239 28.5 21.3119 28.5Z"/>
</svg>
