<svg width="42" height="42" viewBox="0 0 42 42" xmlns="http://www.w3.org/2000/svg">
<path id="songs" fill-rule="evenodd" clip-rule="evenodd" d="M37.7424 5.15543C38.7132 5.73269 39.3015 6.73611 39.3015 7.81459V28.2328C39.3228 28.4112 39.3337 28.6005 39.3337 28.8017C39.3337 29.1315 39.3212 29.4493 39.3015 29.7456V29.8511C39.3015 30.0637 39.279 30.2715 39.2362 30.4723C39.1541 31.1991 39.0499 31.677 39.0499 31.677C38.4413 34.8129 34.7463 36.808 30.7968 36.1331C26.8473 35.4582 24.1389 32.369 24.7475 29.233C25.335 26.2056 28.7992 24.2414 32.5918 24.7164V12.7896C31.1314 13.4085 29.5366 14.0388 27.8902 14.586C25.2487 15.4638 22.245 16.2122 19.1725 16.3517V31.1308C19.1865 31.2256 19.1973 31.3237 19.2046 31.4251C19.2338 31.8282 19.292 33.5239 19.0548 34.7459C18.4463 37.8818 14.7512 39.8769 10.8017 39.202C6.85222 38.5271 4.14385 35.4378 4.75241 32.3019C5.333 29.3101 8.72285 27.3567 12.4628 27.7695V13.0615C12.4628 12.1411 12.8921 11.2666 13.6376 10.6686C14.3832 10.0705 15.3703 9.80849 16.3393 9.9516C19.0751 10.3557 22.294 9.76645 25.6502 8.65105C28.3418 7.75652 30.824 6.63326 32.9944 5.65107L32.9947 5.65097L32.9952 5.65073L32.9952 5.65072C33.5202 5.41312 34.027 5.18379 34.5141 4.96794C35.5534 4.50743 36.7716 4.57818 37.7424 5.15543Z"/>
</svg>
